607 HW2 - R and SQL
…
Wow. I did not expect that. Only three people have watched The Irishman (only 8 surveys filled out). Ill drop it and find a way to fill the other values.

rating_df<-subset(rating_df, movie != 'the_irishman')
oscar_df<- subset(oscar_df, movie != 'the_irishman')

rating_count<-rating_df %>% group_by(movie, rating) %>% tally()
rating_count

## # A tibble: 28 x 3
## # Groups:   movie [7]
##    movie        rating     n
##    <chr>         <int> <int>
##  1 hustlers          1     1
##  2 hustlers          2     1
##  3 hustlers          3     1
##  4 hustlers          4     1
##  5 hustlers          5     2
##  6 hustlers         NA     2
##  7 Joker             4     3
##  8 Joker             5     2
##  9 Joker            NA     3
## 10 little_women      1     4
## #  with 18 more rows
…
